%YAML 1.1
%TAG !u! tag:unity3d.com,2011:
--- !u!114 &11400000
MonoBehaviour:
  m_ObjectHideFlags: 0
  m_CorrespondingSourceObject: {fileID: 0}
  m_PrefabInstance: {fileID: 0}
  m_PrefabAsset: {fileID: 0}
  m_GameObject: {fileID: 0}
  m_Enabled: 1
  m_EditorHideFlags: 0
  m_Script: {fileID: 11500000, guid: e01882f5759aa44d2b0c383b815fb80d, type: 3}
  m_Name: 04 - Music Ending
  m_EditorClassIdentifier: 
  audioClip: {fileID: 8300000, guid: 0143f4ffe4b0a4b4c8755a16541e71ba, type: 3}
  bpm: 140
  barType: 0
  loopStartEndBar: {x: 0, y: 7}
