%YAML 1.1
%TAG !u! tag:unity3d.com,2011:
--- !u!29 &1
OcclusionCullingSettings:
  m_ObjectHideFlags: 0
  serializedVersion: 2
  m_OcclusionBakeSettings:
    smallestOccluder: 5
    smallestHole: 0.25
    backfaceThreshold: 100
  m_SceneGUID: 00000000000000000000000000000000
  m_OcclusionCullingData: {fileID: 0}
--- !u!104 &2
RenderSettings:
  m_ObjectHideFlags: 0
  serializedVersion: 8
  m_Fog: 0
  m_FogColor: {r: 0.5, g: 0.5, b: 0.5, a: 1}
  m_FogMode: 3
  m_FogDensity: 0.01
  m_LinearFogStart: 0
  m_LinearFogEnd: 300
  m_AmbientSkyColor: {r: 0.2, g: 0.2, b: 0.2, a: 1}
  m_AmbientEquatorColor: {r: 0.2, g: 0.2, b: 0.2, a: 1}
  m_AmbientGroundColor: {r: 0.2, g: 0.2, b: 0.2, a: 1}
  m_AmbientIntensity: 1
  m_AmbientMode: 3
  m_SubtractiveShadowColor: {r: 0.42, g: 0.478, b: 0.627, a: 1}
  m_SkyboxMaterial: {fileID: 0}
  m_HaloStrength: 0.5
  m_FlareStrength: 1
  m_FlareFadeSpeed: 3
  m_HaloTexture: {fileID: 0}
  m_SpotCookie: {fileID: 10001, guid: 0000000000000000e000000000000000, type: 0}
  m_DefaultReflectionMode: 0
  m_DefaultReflectionResolution: 128
  m_ReflectionBounces: 1
  m_ReflectionIntensity: 1
  m_CustomReflection: {fileID: 0}
  m_Sun: {fileID: 0}
  m_IndirectSpecularColor: {r: 0, g: 0, b: 0, a: 1}
--- !u!157 &4
LightmapSettings:
  m_ObjectHideFlags: 0
  serializedVersion: 11
  m_GIWorkflowMode: 1
  m_GISettings:
    serializedVersion: 2
    m_BounceScale: 1
    m_IndirectOutputScale: 1
    m_AlbedoBoost: 1
    m_TemporalCoherenceThreshold: 1
    m_EnvironmentLightingMode: 0
    m_EnableBakedLightmaps: 1
    m_EnableRealtimeLightmaps: 0
  m_LightmapEditorSettings:
    serializedVersion: 9
    m_Resolution: 1
    m_BakeResolution: 50
    m_TextureWidth: 1024
    m_TextureHeight: 1024
    m_AO: 1
    m_AOMaxDistance: 1
    m_CompAOExponent: 1
    m_CompAOExponentDirect: 0
    m_Padding: 2
    m_LightmapParameters: {fileID: 0}
    m_LightmapsBakeMode: 1
    m_TextureCompression: 0
    m_FinalGather: 0
    m_FinalGatherFiltering: 1
    m_FinalGatherRayCount: 256
    m_ReflectionCompression: 2
    m_MixedBakeMode: 1
    m_BakeBackend: 0
    m_PVRSampling: 1
    m_PVRDirectSampleCount: 32
    m_PVRSampleCount: 500
    m_PVRBounces: 2
    m_PVRFiltering: 0
    m_PVRFilteringMode: 1
    m_PVRCulling: 1
    m_PVRFilteringGaussRadiusDirect: 1
    m_PVRFilteringGaussRadiusIndirect: 5
    m_PVRFilteringGaussRadiusAO: 2
    m_PVRFilteringAtrousColorSigma: 1
    m_PVRFilteringAtrousNormalSigma: 1
    m_PVRFilteringAtrousPositionSigma: 1
  m_LightingDataAsset: {fileID: 0}
  m_UseShadowmask: 0
--- !u!196 &5
NavMeshSettings:
  serializedVersion: 2
  m_ObjectHideFlags: 0
  m_BuildSettings:
    serializedVersion: 2
    agentTypeID: 0
    agentRadius: 0.5
    agentHeight: 2
    agentSlope: 45
    agentClimb: 0.4
    ledgeDropHeight: 0
    maxJumpAcrossDistance: 0
    minRegionArea: 2
    manualCellSize: 0
    cellSize: 0.16666666
    manualTileSize: 0
    tileSize: 256
    accuratePlacement: 0
  m_NavMeshData: {fileID: 0}
--- !u!1 &7323335
GameObject:
  m_ObjectHideFlags: 0
  m_PrefabParentObject: {fileID: 100068, guid: aa67694146c7fe5448971d5d3e3e8dba, type: 2}
  m_PrefabInternal: {fileID: 1915695174}
  serializedVersion: 5
  m_Component:
  - component: {fileID: 7323336}
  m_Layer: 0
  m_Name: Bip001 L Toe0
  m_TagString: Untagged
  m_Icon: {fileID: 0}
  m_NavMeshLayer: 0
  m_StaticEditorFlags: 0
  m_IsActive: 1
--- !u!4 &7323336
Transform:
  m_ObjectHideFlags: 0
  m_PrefabParentObject: {fileID: 400048, guid: aa67694146c7fe5448971d5d3e3e8dba, type: 2}
  m_PrefabInternal: {fileID: 1915695174}
  m_GameObject: {fileID: 7323335}
  m_LocalRotation: {x: -0.000000048177647, y: -0.00000041432818, z: -0.7071071, w: 0.7071065}
  m_LocalPosition: {x: -0.15441126, y: 0.15759882, z: 0}
  m_LocalScale: {x: 1, y: 1, z: 1}
  m_Children:
  - {fileID: 26548622}
  m_Father: {fileID: 1926181191}
  m_RootOrder: 0
  m_LocalEulerAnglesHint: {x: 0, y: 0, z: 0}
--- !u!1 &26548621
GameObject:
  m_ObjectHideFlags: 0
  m_PrefabParentObject: {fileID: 100066, guid: aa67694146c7fe5448971d5d3e3e8dba, type: 2}
  m_PrefabInternal: {fileID: 1915695174}
  serializedVersion: 5
  m_Component:
  - component: {fileID: 26548622}
  m_Layer: 0
  m_Name: Bip001 L Toe0Nub
  m_TagString: Untagged
  m_Icon: {fileID: 0}
  m_NavMeshLayer: 0
  m_StaticEditorFlags: 0
  m_IsActive: 1
--- !u!4 &26548622
Transform:
  m_ObjectHideFlags: 0
  m_PrefabParentObject: {fileID: 400018, guid: aa67694146c7fe5448971d5d3e3e8dba, type: 2}
  m_PrefabInternal: {fileID: 1915695174}
  m_GameObject: {fileID: 26548621}
  m_LocalRotation: {x: 9.405313e-10, y: -5.759093e-26, z: 1, w: 6.123234e-17}
  m_LocalPosition: {x: -0.09358448, y: -7.4505804e-11, z: -0.000000019073486}
  m_LocalScale: {x: -0.9999999, y: -0.99999994, z: -1}
  m_Children: []
  m_Father: {fileID: 7323336}
  m_RootOrder: 0
  m_LocalEulerAnglesHint: {x: 0, y: 0, z: 0}
--- !u!1 &44519411
GameObject:
  m_ObjectHideFlags: 0
  m_PrefabParentObject: {fileID: 100062, guid: aa67694146c7fe5448971d5d3e3e8dba, type: 2}
  m_PrefabInternal: {fileID: 1915695174}
  serializedVersion: 5
  m_Component:
  - component: {fileID: 44519412}
  m_Layer: 0
  m_Name: Bip001 R Calf
  m_TagString: Untagged
  m_Icon: {fileID: 0}
  m_NavMeshLayer: 0
  m_StaticEditorFlags: 0
  m_IsActive: 1
--- !u!4 &44519412
Transform:
  m_ObjectHideFlags: 0
  m_PrefabParentObject: {fileID: 400054, guid: aa67694146c7fe5448971d5d3e3e8dba, type: 2}
  m_PrefabInternal: {fileID: 1915695174}
  m_GameObject: {fileID: 44519411}
  m_LocalRotation: {x: 0.000000021556051, y: -0.00000007285945, z: 0.46625084, w: 0.8846526}
  m_LocalPosition: {x: -0.17201744, y: -0.000000009536743, z: 0}
  m_LocalScale: {x: 0.99999976, y: 0.99999994, z: 1}
  m_Children:
  - {fileID: 2145350492}
  m_Father: {fileID: 1983958619}
  m_RootOrder: 0
  m_LocalEulerAnglesHint: {x: 0, y: 0, z: 0}
--- !u!1 &97838927
GameObject:
  m_ObjectHideFlags: 0
  m_PrefabParentObject: {fileID: 100048, guid: aa67694146c7fe5448971d5d3e3e8dba, type: 2}
  m_PrefabInternal: {fileID: 1915695174}
  serializedVersion: 5
  m_Component:
  - component: {fileID: 97838928}
  m_Layer: 0
  m_Name: Bip001 HeadNub
  m_TagString: Untagged
  m_Icon: {fileID: 0}
  m_NavMeshLayer: 0
  m_StaticEditorFlags: 0
  m_IsActive: 1
--- !u!4 &97838928
Transform:
  m_ObjectHideFlags: 0
  m_PrefabParentObject: {fileID: 400014, guid: aa67694146c7fe5448971d5d3e3e8dba, type: 2}
  m_PrefabInternal: {fileID: 1915695174}
  m_GameObject: {fileID: 97838927}
  m_LocalRotation: {x: 1.1641532e-10, y: -4.6566123e-10, z: 5.4210102e-20, w: 1}
  m_LocalPosition: {x: -0.54742384, y: -0.000000038146972, z: 0}
  m_LocalScale: {x: 1.0000001, y: 1, z: 1}
  m_Children: []
  m_Father: {fileID: 518806645}
  m_RootOrder: 0
  m_LocalEulerAnglesHint: {x: 0, y: 0, z: 0}
--- !u!1 &142033750
GameObject:
  m_ObjectHideFlags: 0
  m_PrefabParentObject: {fileID: 100074, guid: aa67694146c7fe5448971d5d3e3e8dba, type: 2}
  m_PrefabInternal: {fileID: 1915695174}
  serializedVersion: 5
  m_Component:
  - component: {fileID: 142033751}
  m_Layer: 0
  m_Name: Bip001 L Thigh
  m_TagString: Untagged
  m_Icon: {fileID: 0}
  m_NavMeshLayer: 0
  m_StaticEditorFlags: 0
  m_IsActive: 1
--- !u!4 &142033751
Transform:
  m_ObjectHideFlags: 0
  m_PrefabParentObject: {fileID: 400064, guid: aa67694146c7fe5448971d5d3e3e8dba, type: 2}
  m_PrefabInternal: {fileID: 1915695174}
  m_GameObject: {fileID: 142033750}
  m_LocalRotation: {x: -0.40279302, y: 0.87306243, z: 0.25237, w: 0.10876209}
  m_LocalPosition: {x: 0.08472, y: 0.021713313, z: 0.21468848}
  m_LocalScale: {x: 0.9999999, y: 0.9999997, z: 1}
  m_Children:
  - {fileID: 2127866928}
  m_Father: {fileID: 1240409947}
  m_RootOrder: 0
  m_LocalEulerAnglesHint: {x: 0, y: 0, z: 0}
--- !u!1 &164386908
GameObject:
  m_ObjectHideFlags: 0
  m_PrefabParentObject: {fileID: 100000, guid: aa67694146c7fe5448971d5d3e3e8dba, type: 2}
  m_PrefabInternal: {fileID: 1915695174}
  serializedVersion: 5
  m_Component:
  - component: {fileID: 164386909}
  - component: {fileID: 164386911}
  - component: {fileID: 164386910}
  m_Layer: 0
  m_Name: m01_02_wp
  m_TagString: Untagged
  m_Icon: {fileID: 0}
  m_NavMeshLayer: 0
  m_StaticEditorFlags: 0
  m_IsActive: 1
--- !u!4 &164386909
Transform:
  m_ObjectHideFlags: 0
  m_PrefabParentObject: {fileID: 400000, guid: aa67694146c7fe5448971d5d3e3e8dba, type: 2}
  m_PrefabInternal: {fileID: 1915695174}
  m_GameObject: {fileID: 164386908}
  m_LocalRotation: {x: -0.00000021265576, y: 0.000000011192419, z: -0.000000055962037,
    w: 1}
  m_LocalPosition: {x: 0.00000007644296, y: 0, z: -1.4901161e-10}
  m_LocalScale: {x: 0.005200638, y: 0.0052006375, z: 0.0052006375}
  m_Children: []
  m_Father: {fileID: 1854333028}
  m_RootOrder: 0
  m_LocalEulerAnglesHint: {x: 0, y: 0, z: 0}
--- !u!23 &164386910
MeshRenderer:
  m_ObjectHideFlags: 0
  m_PrefabParentObject: {fileID: 2300000, guid: aa67694146c7fe5448971d5d3e3e8dba,
    type: 2}
  m_PrefabInternal: {fileID: 1915695174}
  m_GameObject: {fileID: 164386908}
  m_Enabled: 1
  m_CastShadows: 1
  m_ReceiveShadows: 1
  m_MotionVectors: 1
  m_LightProbeUsage: 0
  m_ReflectionProbeUsage: 1
  m_Materials:
  - {fileID: 2100000, guid: 272a73b8f60615042a11d7d22b7fe3a8, type: 2}
  m_StaticBatchInfo:
    firstSubMesh: 0
    subMeshCount: 0
  m_StaticBatchRoot: {fileID: 0}
  m_ProbeAnchor: {fileID: 0}
  m_LightProbeVolumeOverride: {fileID: 0}
  m_ScaleInLightmap: 1
  m_PreserveUVs: 0
  m_IgnoreNormalsForChartDetection: 0
  m_ImportantGI: 0
  m_SelectedEditorRenderState: 3
  m_MinimumChartSize: 4
  m_AutoUVMaxDistance: 0.5
  m_AutoUVMaxAngle: 89
  m_LightmapParameters: {fileID: 0}
  m_SortingLayerID: 0
  m_SortingLayer: 0
  m_SortingOrder: 0
--- !u!33 &164386911
MeshFilter:
  m_ObjectHideFlags: 0
  m_PrefabParentObject: {fileID: 3300000, guid: aa67694146c7fe5448971d5d3e3e8dba,
    type: 2}
  m_PrefabInternal: {fileID: 1915695174}
  m_GameObject: {fileID: 164386908}
  m_Mesh: {fileID: 4300002, guid: 8c0951186a44e7f4b83e3461b2929de7, type: 3}
--- !u!1 &206279896
GameObject:
  m_ObjectHideFlags: 0
  m_PrefabParentObject: {fileID: 100078, guid: aa67694146c7fe5448971d5d3e3e8dba, type: 2}
  m_PrefabInternal: {fileID: 1915695174}
  serializedVersion: 5
  m_Component:
  - component: {fileID: 206279897}
  m_Layer: 0
  m_Name: Bip001 Pelvis
  m_TagString: Untagged
  m_Icon: {fileID: 0}
  m_NavMeshLayer: 0
  m_StaticEditorFlags: 0
  m_IsActive: 1
--- !u!4 &206279897
Transform:
  m_ObjectHideFlags: 0
  m_PrefabParentObject: {fileID: 400066, guid: aa67694146c7fe5448971d5d3e3e8dba, type: 2}
  m_PrefabInternal: {fileID: 1915695174}
  m_GameObject: {fileID: 206279896}
  m_LocalRotation: {x: -0.49999964, y: 0.50000036, z: 0.49999964, w: 0.50000036}
  m_LocalPosition: {x: -0, y: 0, z: 0}
  m_LocalScale: {x: 0.99999994, y: 1, z: 0.99999994}
  m_Children:
  - {fileID: 1240409947}
  m_Father: {fileID: 406100261}
  m_RootOrder: 1
  m_LocalEulerAnglesHint: {x: 0, y: 0, z: 0}
--- !u!1 &251245885
GameObject:
  m_ObjectHideFlags: 0
  m_PrefabParentObject: {fileID: 100090, guid: aa67694146c7fe5448971d5d3e3e8dba, type: 2}
  m_PrefabInternal: {fileID: 1915695174}
  serializedVersion: 5
  m_Component:
  - component: {fileID: 251245886}
  - component: {fileID: 251245889}
  - component: {fileID: 251245888}
  - component: {fileID: 251245887}
  m_Layer: 0
  m_Name: orc
  m_TagString: Untagged
  m_Icon: {fileID: 0}
  m_NavMeshLayer: 0
  m_StaticEditorFlags: 0
  m_IsActive: 1
--- !u!4 &251245886
Transform:
  m_ObjectHideFlags: 0
  m_PrefabParentObject: {fileID: 400090, guid: aa67694146c7fe5448971d5d3e3e8dba, type: 2}
  m_PrefabInternal: {fileID: 1915695174}
  m_GameObject: {fileID: 251245885}
  m_LocalRotation: {x: 0, y: 0, z: 0, w: 1}
  m_LocalPosition: {x: 0, y: 0, z: 0}
  m_LocalScale: {x: 1, y: 1, z: 1}
  m_Children:
  - {fileID: 865433877}
  - {fileID: 1701250960}
  - {fileID: 1576156959}
  m_Father: {fileID: 0}
  m_RootOrder: 1
  m_LocalEulerAnglesHint: {x: 0, y: 0, z: 0}
--- !u!114 &251245887
MonoBehaviour:
  m_ObjectHideFlags: 0
  m_PrefabParentObject: {fileID: 11400000, guid: aa67694146c7fe5448971d5d3e3e8dba,
    type: 2}
  m_PrefabInternal: {fileID: 1915695174}
  m_GameObject: {fileID: 251245885}
  m_Enabled: 1
  m_EditorHideFlags: 0
  m_Script: {fileID: 11500000, guid: 2628b95ad0e12ec46a8ab9126bbabc69, type: 3}
  m_Name: 
  m_EditorClassIdentifier: 
--- !u!143 &251245888
CharacterController:
  m_ObjectHideFlags: 0
  m_PrefabParentObject: {fileID: 14300000, guid: aa67694146c7fe5448971d5d3e3e8dba,
    type: 2}
  m_PrefabInternal: {fileID: 1915695174}
  m_GameObject: {fileID: 251245885}
  m_Material: {fileID: 0}
  m_IsTrigger: 0
  m_Enabled: 1
  serializedVersion: 2
  m_Height: 2
  m_Radius: 0.5
  m_SlopeLimit: 45
  m_StepOffset: 0.3
  m_SkinWidth: 0.08
  m_MinMoveDistance: 0
  m_Center: {x: 0, y: 0.9, z: 0.25}
--- !u!111 &251245889
Animation:
  m_ObjectHideFlags: 0
  m_PrefabParentObject: {fileID: 11100000, guid: aa67694146c7fe5448971d5d3e3e8dba,
    type: 2}
  m_PrefabInternal: {fileID: 1915695174}
  m_GameObject: {fileID: 251245885}
  m_Enabled: 1
  serializedVersion: 3
  m_Animation: {fileID: 0}
  m_Animations:
  - {fileID: 7400000, guid: 10d1ae5e95afae6469eae2b7380117ed, type: 3}
  - {fileID: 7400000, guid: 8c0951186a44e7f4b83e3461b2929de7, type: 3}
  - {fileID: 7400000, guid: 77e9ecf673f3f714b8fa4d1f73233160, type: 3}
  - {fileID: 7400000, guid: 8cf14db09a9d28740b796cb92c120aa4, type: 3}
  m_WrapMode: 0
  m_PlayAutomatically: 1
  m_AnimatePhysics: 0
  m_CullingType: 1
--- !u!1 &280155797
GameObject:
  m_ObjectHideFlags: 0
  m_PrefabParentObject: {fileID: 100020, guid: aa67694146c7fe5448971d5d3e3e8dba, type: 2}
  m_PrefabInternal: {fileID: 1915695174}
  serializedVersion: 5
  m_Component:
  - component: {fileID: 280155798}
  m_Layer: 0
  m_Name: Bip001 R UpperArm
  m_TagString: Untagged
  m_Icon: {fileID: 0}
  m_NavMeshLayer: 0
  m_StaticEditorFlags: 0
  m_IsActive: 1
--- !u!4 &280155798
Transform:
  m_ObjectHideFlags: 0
  m_PrefabParentObject: {fileID: 400060, guid: aa67694146c7fe5448971d5d3e3e8dba, type: 2}
  m_PrefabInternal: {fileID: 1915695174}
  m_GameObject: {fileID: 280155797}
  m_LocalRotation: {x: 0.0024350528, y: 0.5170259, z: 0.043229286, w: 0.854874}
  m_LocalPosition: {x: -0.25052503, y: 0, z: 0}
  m_LocalScale: {x: 1, y: 1, z: 1}
  m_Children:
  - {fileID: 1258328927}
  m_Father: {fileID: 2036270236}
  m_RootOrder: 0
  m_LocalEulerAnglesHint: {x: 0, y: 0, z: 0}
--- !u!1 &297338798
GameObject:
  m_ObjectHideFlags: 0
  m_PrefabParentObject: {fileID: 100042, guid: aa67694146c7fe5448971d5d3e3e8dba, type: 2}
  m_PrefabInternal: {fileID: 1915695174}
  serializedVersion: 5
  m_Component:
  - component: {fileID: 297338799}
  m_Layer: 0
  m_Name: Bip001 L UpperArm
  m_TagString: Untagged
  m_Icon: {fileID: 0}
  m_NavMeshLayer: 0
  m_StaticEditorFlags: 0
  m_IsActive: 1
--- !u!4 &297338799
Transform:
  m_ObjectHideFlags: 0
  m_PrefabParentObject: {fileID: 400070, guid: aa67694146c7fe5448971d5d3e3e8dba, type: 2}
  m_PrefabInternal: {fileID: 1915695174}
  m_GameObject: {fileID: 297338798}
  m_LocalRotation: {x: -0.088672735, y: -0.48761946, z: -0.07767404, w: 0.86506134}
  m_LocalPosition: {x: -0.25052506, y: 0.000000076293944, z: 0}
  m_LocalScale: {x: 0.99999994, y: 1.0000002, z: 0.99999994}
  m_Children:
  - {fileID: 1886491988}
  m_Father: {fileID: 1630758822}
  m_RootOrder: 0
  m_LocalEulerAnglesHint: {x: 0, y: 0, z: 0}
--- !u!1 &301951095
GameObject:
  m_ObjectHideFlags: 0
  m_PrefabParentObject: {fileID: 100046, guid: aa67694146c7fe5448971d5d3e3e8dba, type: 2}
  m_PrefabInternal: {fileID: 1915695174}
  serializedVersion: 5
  m_Component:
  - component: {fileID: 301951096}
  m_Layer: 0
  m_Name: Bone001
  m_TagString: Untagged
  m_Icon: {fileID: 0}
  m_NavMeshLayer: 0
  m_StaticEditorFlags: 0
  m_IsActive: 1
--- !u!4 &301951096
Transform:
  m_ObjectHideFlags: 0
  m_PrefabParentObject: {fileID: 400080, guid: aa67694146c7fe5448971d5d3e3e8dba, type: 2}
  m_PrefabInternal: {fileID: 1915695174}
  m_GameObject: {fileID: 301951095}
  m_LocalRotation: {x: 0.5414106, y: -0.44216356, z: -0.50120765, w: 0.5100557}
  m_LocalPosition: {x: -0.30998945, y: -0.08240738, z: 0.0030533408}
  m_LocalScale: {x: 0.5683727, y: 0.5683736, z: 0.56837255}
  m_Children: []
  m_Father: {fileID: 518806645}
  m_RootOrder: 1
  m_LocalEulerAnglesHint: {x: 0, y: 0, z: 0}
--- !u!1 &406100260
GameObject:
  m_ObjectHideFlags: 0
  m_PrefabParentObject: {fileID: 100082, guid: aa67694146c7fe5448971d5d3e3e8dba, type: 2}
  m_PrefabInternal: {fileID: 1915695174}
  serializedVersion: 5
  m_Component:
  - component: {fileID: 406100261}
  m_Layer: 0
  m_Name: Bip001
  m_TagString: Untagged
  m_Icon: {fileID: 0}
  m_NavMeshLayer: 0
  m_StaticEditorFlags: 0
  m_IsActive: 1
--- !u!4 &406100261
Transform:
  m_ObjectHideFlags: 0
  m_PrefabParentObject: {fileID: 400022, guid: aa67694146c7fe5448971d5d3e3e8dba, type: 2}
  m_PrefabInternal: {fileID: 1915695174}
  m_GameObject: {fileID: 406100260}
  m_LocalRotation: {x: 0.042773776, y: -0.1734045, z: 0.1838484, w: 0.9665925}
  m_LocalPosition: {x: -0, y: 0, z: 0.0020863009}
  m_LocalScale: {x: 0.005200638, y: 0.005200638, z: 0.005200638}
  m_Children:
  - {fileID: 450479723}
  - {fileID: 206279897}
  m_Father: {fileID: 1701250960}
  m_RootOrder: 0
  m_LocalEulerAnglesHint: {x: 0, y: 0, z: 0}
--- !u!1 &411245534
GameObject:
  m_ObjectHideFlags: 0
  m_PrefabParentObject: {fileID: 100038, guid: aa67694146c7fe5448971d5d3e3e8dba, type: 2}
  m_PrefabInternal: {fileID: 1915695174}
  serializedVersion: 5
  m_Component:
  - component: {fileID: 411245535}
  m_Layer: 0
  m_Name: Bip001 L Hand
  m_TagString: Untagged
  m_Icon: {fileID: 0}
  m_NavMeshLayer: 0
  m_StaticEditorFlags: 0
  m_IsActive: 1
--- !u!4 &411245535
Transform:
  m_ObjectHideFlags: 0
  m_PrefabParentObject: {fileID: 400038, guid: aa67694146c7fe5448971d5d3e3e8dba, type: 2}
  m_PrefabInternal: {fileID: 1915695174}
  m_GameObject: {fileID: 411245534}
  m_LocalRotation: {x: -0.70346457, y: -0.080098614, z: -0.046769734, w: 0.70465195}
  m_LocalPosition: {x: -0.34681582, y: 0.000000019073486, z: 0}
  m_LocalScale: {x: 0.99999994, y: 0.99999994, z: 0.99999994}
  m_Children:
  - {fileID: 426670156}
  - {fileID: 722682501}
  - {fileID: 1276584928}
  m_Father: {fileID: 1886491988}
  m_RootOrder: 0
  m_LocalEulerAnglesHint: {x: 0, y: 0, z: 0}
--- !u!1 &426670155
GameObject:
  m_ObjectHideFlags: 0
  m_PrefabParentObject: {fileID: 100036, guid: aa67694146c7fe5448971d5d3e3e8dba, type: 2}
  m_PrefabInternal: {fileID: 1915695174}
  serializedVersion: 5
  m_Component:
  - component: {fileID: 426670156}
  m_Layer: 0
  m_Name: Bip001 L Finger0
  m_TagString: Untagged
  m_Icon: {fileID: 0}
  m_NavMeshLayer: 0
  m_StaticEditorFlags: 0
  m_IsActive: 1
--- !u!4 &426670156
Transform:
  m_ObjectHideFlags: 0
  m_PrefabParentObject: {fileID: 400036, guid: aa67694146c7fe5448971d5d3e3e8dba, type: 2}
  m_PrefabInternal: {fileID: 1915695174}
  m_GameObject: {fileID: 426670155}
  m_LocalRotation: {x: 0.6925364, y: -0.5122607, z: -0.009240735, w: 0.5078355}
  m_LocalPosition: {x: -0.048019484, y: 0.052684553, z: -0.14894016}
  m_LocalScale: {x: 1.0000001, y: 1, z: 1}
  m_Children:
  - {fileID: 1662662083}
  m_Father: {fileID: 411245535}
  m_RootOrder: 0
  m_LocalEulerAnglesHint: {x: 0, y: 0, z: 0}
--- !u!1 &450479722
GameObject:
  m_ObjectHideFlags: 0
  m_PrefabParentObject: {fileID: 100080, guid: aa67694146c7fe5448971d5d3e3e8dba, type: 2}
  m_PrefabInternal: {fileID: 1915695174}
  serializedVersion: 5
  m_Component:
  - component: {fileID: 450479723}
  m_Layer: 0
  m_Name: Bip001 Footsteps
  m_TagString: Untagged
  m_Icon: {fileID: 0}
  m_NavMeshLayer: 0
  m_StaticEditorFlags: 0
  m_IsActive: 1
--- !u!4 &450479723
Transform:
  m_ObjectHideFlags: 0
  m_PrefabParentObject: {fileID: 400020, guid: aa67694146c7fe5448971d5d3e3e8dba, type: 2}
  m_PrefabInternal: {fileID: 1915695174}
  m_GameObject: {fileID: 450479722}
  m_LocalRotation: {x: -0.15286113, y: 0.09236987, z: -0.8134846, w: 0.5534836}
  m_LocalPosition: {x: -0.14024743, y: -0.0075645596, z: -0.3741265}
  m_LocalScale: {x: 0.9999999, y: 0.99999994, z: 0.9999999}
  m_Children: []
  m_Father: {fileID: 406100261}
  m_RootOrder: 0
  m_LocalEulerAnglesHint: {x: 0, y: 0, z: 0}
--- !u!1 &518806644
GameObject:
  m_ObjectHideFlags: 0
  m_PrefabParentObject: {fileID: 100050, guid: aa67694146c7fe5448971d5d3e3e8dba, type: 2}
  m_PrefabInternal: {fileID: 1915695174}
  serializedVersion: 5
  m_Component:
  - component: {fileID: 518806645}
  m_Layer: 0
  m_Name: Bip001 Head
  m_TagString: Untagged
  m_Icon: {fileID: 0}
  m_NavMeshLayer: 0
  m_StaticEditorFlags: 0
  m_IsActive: 1
--- !u!4 &518806645
Transform:
  m_ObjectHideFlags: 0
  m_PrefabParentObject: {fileID: 400082, guid: aa67694146c7fe5448971d5d3e3e8dba, type: 2}
  m_PrefabInternal: {fileID: 1915695174}
  m_GameObject: {fileID: 518806644}
  m_LocalRotation: {x: 0.15492237, y: -0.00049306836, z: 0.2829211, w: 0.94654876}
  m_LocalPosition: {x: -0.22876747, y: 0.19571427, z: 0.00000018119812}
  m_LocalScale: {x: 0.9999998, y: 1, z: 1}
  m_Children:
  - {fileID: 97838928}
  - {fileID: 301951096}
  m_Father: {fileID: 541866199}
  m_RootOrder: 0
  m_LocalEulerAnglesHint: {x: 0, y: 0, z: 0}
--- !u!1 &541866198
GameObject:
  m_ObjectHideFlags: 0
  m_PrefabParentObject: {fileID: 100052, guid: aa67694146c7fe5448971d5d3e3e8dba, type: 2}
  m_PrefabInternal: {fileID: 1915695174}
  serializedVersion: 5
  m_Component:
  - component: {fileID: 541866199}
  m_Layer: 0
  m_Name: Bip001 Neck
  m_TagString: Untagged
  m_Icon: {fileID: 0}
  m_NavMeshLayer: 0
  m_StaticEditorFlags: 0
  m_IsActive: 1
--- !u!4 &541866199
Transform:
  m_ObjectHideFlags: 0
  m_PrefabParentObject: {fileID: 400072, guid: aa67694146c7fe5448971d5d3e3e8dba, type: 2}
  m_PrefabInternal: {fileID: 1915695174}
  m_GameObject: {fileID: 541866198}
  m_LocalRotation: {x: 0.00000001836716, y: 0.00000025268048, z: -0.08715576, w: 0.9961947}
  m_LocalPosition: {x: -0.37170714, y: -0.00013902664, z: 0}
  m_LocalScale: {x: 1, y: 1, z: 1}
  m_Children:
  - {fileID: 518806645}
  - {fileID: 1630758822}
  - {fileID: 2036270236}
  m_Father: {fileID: 1428733624}
  m_RootOrder: 0
  m_LocalEulerAnglesHint: {x: 0, y: 0, z: 0}
--- !u!1 &722682500
GameObject:
  m_ObjectHideFlags: 0
  m_PrefabParentObject: {fileID: 100030, guid: aa67694146c7fe5448971d5d3e3e8dba, type: 2}
  m_PrefabInternal: {fileID: 1915695174}
  serializedVersion: 5
  m_Component:
  - component: {fileID: 722682501}
  m_Layer: 0
  m_Name: Bip001 L Finger1
  m_TagString: Untagged
  m_Icon: {fileID: 0}
  m_NavMeshLayer: 0
  m_StaticEditorFlags: 0
  m_IsActive: 1
--- !u!4 &722682501
Transform:
  m_ObjectHideFlags: 0
  m_PrefabParentObject: {fileID: 400042, guid: aa67694146c7fe5448971d5d3e3e8dba, type: 2}
  m_PrefabInternal: {fileID: 1915695174}
  m_GameObject: {fileID: 722682500}
  m_LocalRotation: {x: -0.00037346588, y: -0.00013793953, z: -0.34651008, w: 0.93804616}
  m_LocalPosition: {x: -0.17601864, y: 0, z: -0.000000009536743}
  m_LocalScale: {x: 1.0000001, y: 1, z: 0.99999994}
  m_Children:
  - {fileID: 1337609742}
  m_Father: {fileID: 411245535}
  m_RootOrder: 1
  m_LocalEulerAnglesHint: {x: 0, y: 0, z: 0}
--- !u!1 &856763511
GameObject:
  m_ObjectHideFlags: 0
  m_PrefabParentObject: {fileID: 100008, guid: aa67694146c7fe5448971d5d3e3e8dba, type: 2}
  m_PrefabInternal: {fileID: 1915695174}
  serializedVersion: 5
  m_Component:
  - component: {fileID: 856763512}
  m_Layer: 0
  m_Name: Bip001 R Finger1
  m_TagString: Untagged
  m_Icon: {fileID: 0}
  m_NavMeshLayer: 0
  m_StaticEditorFlags: 0
  m_IsActive: 1
--- !u!4 &856763512
Transform:
  m_ObjectHideFlags: 0
  m_PrefabParentObject: {fileID: 400032, guid: aa67694146c7fe5448971d5d3e3e8dba, type: 2}
  m_PrefabInternal: {fileID: 1915695174}
  m_GameObject: {fileID: 856763511}
  m_LocalRotation: {x: 0.00035466222, y: 0.00018098623, z: -0.45453653, w: 0.89072806}
  m_LocalPosition: {x: -0.17601864, y: 0.000000076293944, z: 0}
  m_LocalScale: {x: 1.0000001, y: 1.0000001, z: 0.99999994}
  m_Children:
  - {fileID: 1045234423}
  m_Father: {fileID: 1720518971}
  m_RootOrder: 1
  m_LocalEulerAnglesHint: {x: 0, y: 0, z: 0}
--- !u!1 &864078147
GameObject:
  m_ObjectHideFlags: 0
  m_PrefabParentObject: {fileID: 100058, guid: aa67694146c7fe5448971d5d3e3e8dba, type: 2}
  m_PrefabInternal: {fileID: 1915695174}
  serializedVersion: 5
  m_Component:
  - component: {fileID: 864078148}
  m_Layer: 0
  m_Name: Bip001 R Toe0
  m_TagString: Untagged
  m_Icon: {fileID: 0}
  m_NavMeshLayer: 0
  m_StaticEditorFlags: 0
  m_IsActive: 1
--- !u!4 &864078148
Transform:
  m_ObjectHideFlags: 0
  m_PrefabParentObject: {fileID: 400044, guid: aa67694146c7fe5448971d5d3e3e8dba, type: 2}
  m_PrefabInternal: {fileID: 1915695174}
  m_GameObject: {fileID: 864078147}
  m_LocalRotation: {x: -0.0000000073096014, y: -0.000000053908686, z: -0.6975018,
    w: 0.71658313}
  m_LocalPosition: {x: -0.15441126, y: 0.15759882, z: 0.000000019073486}
  m_LocalScale: {x: 0.99999994, y: 0.99999994, z: 1}
  m_Children:
  - {fileID: 1182539064}
  m_Father: {fileID: 2145350492}
  m_RootOrder: 0
  m_LocalEulerAnglesHint: {x: 0, y: 0, z: 0}
--- !u!1 &865433876
GameObject:
  m_ObjectHideFlags: 0
  m_PrefabParentObject: {fileID: 100088, guid: aa67694146c7fe5448971d5d3e3e8dba, type: 2}
  m_PrefabInternal: {fileID: 1915695174}
  serializedVersion: 5
  m_Component:
  - component: {fileID: 865433877}
  - component: {fileID: 865433878}
  m_Layer: 0
  m_Name: m01_02
  m_TagString: Untagged
  m_Icon: {fileID: 0}
  m_NavMeshLayer: 0
  m_StaticEditorFlags: 0
  m_IsActive: 1
--- !u!4 &865433877
Transform:
  m_ObjectHideFlags: 0
  m_PrefabParentObject: {fileID: 400088, guid: aa67694146c7fe5448971d5d3e3e8dba, type: 2}
  m_PrefabInternal: {fileID: 1915695174}
  m_GameObject: {fileID: 865433876}
  m_LocalRotation: {x: -0.7071068, y: 0, z: -0, w: 0.7071068}
  m_LocalPosition: {x: 0, y: 0, z: 0}
  m_LocalScale: {x: 1, y: 1, z: 1}
  m_Children: []
  m_Father: {fileID: 251245886}
  m_RootOrder: 0
  m_LocalEulerAnglesHint: {x: 0, y: 0, z: 0}
--- !u!137 &865433878
SkinnedMeshRenderer:
  m_ObjectHideFlags: 0
  m_PrefabParentObject: {fileID: 13700000, guid: aa67694146c7fe5448971d5d3e3e8dba,
    type: 2}
  m_PrefabInternal: {fileID: 1915695174}
  m_GameObject: {fileID: 865433876}
  m_Enabled: 1
  m_CastShadows: 1
  m_ReceiveShadows: 1
  m_MotionVectors: 1
  m_LightProbeUsage: 0
  m_ReflectionProbeUsage: 1
  m_Materials:
  - {fileID: 2100000, guid: 272a73b8f60615042a11d7d22b7fe3a8, type: 2}
  m_StaticBatchInfo:
    firstSubMesh: 0
    subMeshCount: 0
  m_StaticBatchRoot: {fileID: 0}
  m_ProbeAnchor: {fileID: 0}
  m_LightProbeVolumeOverride: {fileID: 0}
  m_ScaleInLightmap: 1
  m_PreserveUVs: 0
  m_IgnoreNormalsForChartDetection: 0
  m_ImportantGI: 0
  m_SelectedEditorRenderState: 3
  m_MinimumChartSize: 4
  m_AutoUVMaxDistance: 0.5
  m_AutoUVMaxAngle: 89
  m_LightmapParameters: {fileID: 0}
  m_SortingLayerID: 0
  m_SortingLayer: 0
  m_SortingOrder: 0
  serializedVersion: 2
  m_Quality: 0
  m_UpdateWhenOffscreen: 0
  m_SkinnedMotionVectors: 1
  m_Mesh: {fileID: 4300000, guid: 8c0951186a44e7f4b83e3461b2929de7, type: 3}
  m_Bones:
  - {fileID: 518806645}
  - {fileID: 301951096}
  - {fileID: 1428733624}
  - {fileID: 1630758822}
  - {fileID: 1240409947}
  - {fileID: 541866199}
  - {fileID: 297338799}
  - {fileID: 2036270236}
  - {fileID: 206279897}
  - {fileID: 142033751}
  - {fileID: 1886491988}
  - {fileID: 280155798}
  - {fileID: 1983958619}
  - {fileID: 1258328927}
  - {fileID: 44519412}
  - {fileID: 2127866928}
  - {fileID: 1926181191}
  - {fileID: 7323336}
  - {fileID: 2145350492}
  - {fileID: 864078148}
  - {fileID: 722682501}
  - {fileID: 1337609742}
  - {fileID: 411245535}
  - {fileID: 426670156}
  - {fileID: 1662662083}
  - {fileID: 856763512}
  - {fileID: 1045234423}
  - {fileID: 1720518971}
  - {fileID: 945778492}
  - {fileID: 2117830335}
  m_BlendShapeWeights: []
  m_RootBone: {fileID: 206279897}
  m_AABB:
    m_Center: {x: -0.63741696, y: 0.41568407, z: -0.02560556}
    m_Extent: {x: 1.1837186, y: 1.0831783, z: 1.1562247}
  m_DirtyAABB: 0
--- !u!1 &945778491
GameObject:
  m_ObjectHideFlags: 0
  m_PrefabParentObject: {fileID: 100014, guid: aa67694146c7fe5448971d5d3e3e8dba, type: 2}
  m_PrefabInternal: {fileID: 1915695174}
  serializedVersion: 5
  m_Component:
  - component: {fileID: 945778492}
  m_Layer: 0
  m_Name: Bip001 R Finger0
  m_TagString: Untagged
  m_Icon: {fileID: 0}
  m_NavMeshLayer: 0
  m_StaticEditorFlags: 0
  m_IsActive: 1
--- !u!4 &945778492
Transform:
  m_ObjectHideFlags: 0
  m_PrefabParentObject: {fileID: 400026, guid: aa67694146c7fe5448971d5d3e3e8dba, type: 2}
  m_PrefabInternal: {fileID: 1915695174}
  m_GameObject: {fileID: 945778491}
  m_LocalRotation: {x: -0.6925365, y: 0.5122607, z: -0.009240732, w: 0.5078355}
  m_LocalPosition: {x: -0.04801952, y: 0.05268463, z: 0.14894016}
  m_LocalScale: {x: 1, y: 1, z: 1}
  m_Children:
  - {fileID: 2117830335}
  m_Father: {fileID: 1720518971}
  m_RootOrder: 0
  m_LocalEulerAnglesHint: {x: 0, y: 0, z: 0}
--- !u!1 &1045234422
GameObject:
  m_ObjectHideFlags: 0
  m_PrefabParentObject: {fileID: 100006, guid: aa67694146c7fe5448971d5d3e3e8dba, type: 2}
  m_PrefabInternal: {fileID: 1915695174}
  serializedVersion: 5
  m_Component:
  - component: {fileID: 1045234423}
  m_Layer: 0
  m_Name: Bip001 R Finger11
  m_TagString: Untagged
  m_Icon: {fileID: 0}
  m_NavMeshLayer: 0
  m_StaticEditorFlags: 0
  m_IsActive: 1
--- !u!4 &1045234423
Transform:
  m_ObjectHideFlags: 0
  m_PrefabParentObject: {fileID: 400030, guid: aa67694146c7fe5448971d5d3e3e8dba, type: 2}
  m_PrefabInternal: {fileID: 1915695174}
  m_GameObject: {fileID: 1045234422}
  m_LocalRotation: {x: 0.0000000014880602, y: 0.0000000073004673, z: -0.19972406,
    w: 0.9798522}
  m_LocalPosition: {x: -0.09227829, y: 0.000000076293944, z: 0.000000038146972}
  m_LocalScale: {x: 1, y: 0.9999999, z: 1}
  m_Children:
  - {fileID: 1337112253}
  m_Father: {fileID: 856763512}
  m_RootOrder: 0
  m_LocalEulerAnglesHint: {x: 0, y: 0, z: 0}
--- !u!1 &1182539063
GameObject:
  m_ObjectHideFlags: 0
  m_PrefabParentObject: {fileID: 100056, guid: aa67694146c7fe5448971d5d3e3e8dba, type: 2}
  m_PrefabInternal: {fileID: 1915695174}
  serializedVersion: 5
  m_Component:
  - component: {fileID: 1182539064}
  m_Layer: 0
  m_Name: Bip001 R Toe0Nub
  m_TagString: Untagged
  m_Icon: {fileID: 0}
  m_NavMeshLayer: 0
  m_StaticEditorFlags: 0
  m_IsActive: 1
--- !u!4 &1182539064
Transform:
  m_ObjectHideFlags: 0
  m_PrefabParentObject: {fileID: 400016, guid: aa67694146c7fe5448971d5d3e3e8dba, type: 2}
  m_PrefabInternal: {fileID: 1915695174}
  m_GameObject: {fileID: 1182539063}
  m_LocalRotation: {x: 9.313226e-10, y: 0.0000000018553693, z: -1.7279473e-18, w: 1}
  m_LocalPosition: {x: -0.09358442, y: -0.0000000011920929, z: 0.000000019073486}
  m_LocalScale: {x: 0.99999994, y: 1, z: 0.99999994}
  m_Children: []
  m_Father: {fileID: 864078148}
  m_RootOrder: 0
  m_LocalEulerAnglesHint: {x: 0, y: 0, z: 0}
--- !u!1 &1186382156
GameObject:
  m_ObjectHideFlags: 0
  m_PrefabParentObject: {fileID: 100010, guid: aa67694146c7fe5448971d5d3e3e8dba, type: 2}
  m_PrefabInternal: {fileID: 1915695174}
  serializedVersion: 5
  m_Component:
  - component: {fileID: 1186382157}
  m_Layer: 0
  m_Name: Bip001 R Finger0Nub
  m_TagString: Untagged
  m_Icon: {fileID: 0}
  m_NavMeshLayer: 0
  m_StaticEditorFlags: 0
  m_IsActive: 1
--- !u!4 &1186382157
Transform:
  m_ObjectHideFlags: 0
  m_PrefabParentObject: {fileID: 400004, guid: aa67694146c7fe5448971d5d3e3e8dba, type: 2}
  m_PrefabInternal: {fileID: 1915695174}
  m_GameObject: {fileID: 1186382156}
  m_LocalRotation: {x: 4.656613e-10, y: 0.000000006053596, z: 1, w: 5.841342e-17}
  m_LocalPosition: {x: -0.10431, y: 0.000000038146972, z: 0.000000076293944}
  m_LocalScale: {x: -1, y: -1.0000001, z: -1}
  m_Children: []
  m_Father: {fileID: 2117830335}
  m_RootOrder: 0
  m_LocalEulerAnglesHint: {x: 0, y: 0, z: 0}
--- !u!1 &1240409946
GameObject:
  m_ObjectHideFlags: 0
  m_PrefabParentObject: {fileID: 100076, guid: aa67694146c7fe5448971d5d3e3e8dba, type: 2}
  m_PrefabInternal: {fileID: 1915695174}
  serializedVersion: 5
  m_Component:
  - component: {fileID: 1240409947}
  m_Layer: 0
  m_Name: Bip001 Spine
  m_TagString: Untagged
  m_Icon: {fileID: 0}
  m_NavMeshLayer: 0
  m_StaticEditorFlags: 0
  m_IsActive: 1
--- !u!4 &1240409947
Transform:
  m_ObjectHideFlags: 0
  m_PrefabParentObject: {fileID: 400074, guid: aa67694146c7fe5448971d5d3e3e8dba, type: 2}
  m_PrefabInternal: {fileID: 1915695174}
  m_GameObject: {fileID: 1240409946}
  m_LocalRotation: {x: 0.044244505, y: 0.04289949, z: -0.014326715, w: 0.99799645}
  m_LocalPosition: {x: -0.10318737, y: -0.00029466627, z: -0.000025627016}
  m_LocalScale: {x: 0.99999994, y: 1, z: 0.9999999}
  m_Children:
  - {fileID: 142033751}
  - {fileID: 1983958619}
  - {fileID: 1428733624}
  m_Father: {fileID: 206279897}
  m_RootOrder: 0
  m_LocalEulerAnglesHint: {x: 0, y: 0, z: 0}
--- !u!1 &1258328926
GameObject:
  m_ObjectHideFlags: 0
  m_PrefabParentObject: {fileID: 100018, guid: aa67694146c7fe5448971d5d3e3e8dba, type: 2}
  m_PrefabInternal: {fileID: 1915695174}
  serializedVersion: 5
  m_Component:
  - component: {fileID: 1258328927}
  m_Layer: 0
  m_Name: Bip001 R Forearm
  m_TagString: Untagged
  m_Icon: {fileID: 0}
  m_NavMeshLayer: 0
  m_StaticEditorFlags: 0
  m_IsActive: 1
--- !u!4 &1258328927
Transform:
  m_ObjectHideFlags: 0
  m_PrefabParentObject: {fileID: 400056, guid: aa67694146c7fe5448971d5d3e3e8dba, type: 2}
  m_PrefabInternal: {fileID: 1915695174}
  m_GameObject: {fileID: 1258328926}
  m_LocalRotation: {x: 0.000000032924373, y: 0.000000012979071, z: 0.36674133, w: 0.93032295}
  m_LocalPosition: {x: -0.36953798, y: 0.000000038146972, z: -0.000000076293944}
  m_LocalScale: {x: 0.9999999, y: 0.99999994, z: 0.99999994}
  m_Children:
  - {fileID: 1720518971}
  m_Father: {fileID: 280155798}
  m_RootOrder: 0
  m_LocalEulerAnglesHint: {x: 0, y: 0, z: 0}
--- !u!1 &1276584927
GameObject:
  m_ObjectHideFlags: 0
  m_PrefabParentObject: {fileID: 100024, guid: aa67694146c7fe5448971d5d3e3e8dba, type: 2}
  m_PrefabInternal: {fileID: 1915695174}
  serializedVersion: 5
  m_Component:
  - component: {fileID: 1276584928}
  m_Layer: 0
  m_Name: M31_left
  m_TagString: Untagged
  m_Icon: {fileID: 0}
  m_NavMeshLayer: 0
  m_StaticEditorFlags: 0
  m_IsActive: 1
--- !u!4 &1276584928
Transform:
  m_ObjectHideFlags: 0
  m_PrefabParentObject: {fileID: 400012, guid: aa67694146c7fe5448971d5d3e3e8dba, type: 2}
  m_PrefabInternal: {fileID: 1915695174}
  m_GameObject: {fileID: 1276584927}
  m_LocalRotation: {x: 0.000000014879142, y: 0.000000039677712, z: -0.000000029758285,
    w: 1}
  m_LocalPosition: {x: -0.14447731, y: 0.07305542, z: -0.00000015258789}
  m_LocalScale: {x: 192.28413, y: 192.28415, z: 192.28416}
  m_Children: []
  m_Father: {fileID: 411245535}
  m_RootOrder: 2
  m_LocalEulerAnglesHint: {x: 0, y: 0, z: 0}
--- !u!1 &1337112252
GameObject:
  m_ObjectHideFlags: 0
  m_PrefabParentObject: {fileID: 100004, guid: aa67694146c7fe5448971d5d3e3e8dba, type: 2}
  m_PrefabInternal: {fileID: 1915695174}
  serializedVersion: 5
  m_Component:
  - component: {fileID: 1337112253}
  m_Layer: 0
  m_Name: Bip001 R Finger1Nub
  m_TagString: Untagged
  m_Icon: {fileID: 0}
  m_NavMeshLayer: 0
  m_StaticEditorFlags: 0
  m_IsActive: 1
--- !u!4 &1337112253
Transform:
  m_ObjectHideFlags: 0
  m_PrefabParentObject: {fileID: 400002, guid: aa67694146c7fe5448971d5d3e3e8dba, type: 2}
  m_PrefabInternal: {fileID: 1915695174}
  m_GameObject: {fileID: 1337112252}
  m_LocalRotation: {x: 0, y: 0, z: 1, w: -0.000000014901161}
  m_LocalPosition: {x: -0.082007594, y: -0.000000057220458, z: -0.000000038146972}
  m_LocalScale: {x: -1, y: -1, z: -0.9999999}
  m_Children: []
  m_Father: {fileID: 1045234423}
  m_RootOrder: 0
  m_LocalEulerAnglesHint: {x: 0, y: 0, z: 0}
--- !u!1 &1337609741
GameObject:
  m_ObjectHideFlags: 0
  m_PrefabParentObject: {fileID: 100028, guid: aa67694146c7fe5448971d5d3e3e8dba, type: 2}
  m_PrefabInternal: {fileID: 1915695174}
  serializedVersion: 5
  m_Component:
  - component: {fileID: 1337609742}
  m_Layer: 0
  m_Name: Bip001 L Finger11
  m_TagString: Untagged
  m_Icon: {fileID: 0}
  m_NavMeshLayer: 0
  m_StaticEditorFlags: 0
  m_IsActive: 1
--- !u!4 &1337609742
Transform:
  m_ObjectHideFlags: 0
  m_PrefabParentObject: {fileID: 400040, guid: aa67694146c7fe5448971d5d3e3e8dba, type: 2}
  m_PrefabInternal: {fileID: 1915695174}
  m_GameObject: {fileID: 1337609741}
  m_LocalRotation: {x: -0.0000000014315915, y: -0.000000003439235, z: -0.3842899,
    w: 0.9232125}
  m_LocalPosition: {x: -0.09227821, y: 0, z: -0.000000009536743}
  m_LocalScale: {x: 0.99999994, y: 0.99999994, z: 1}
  m_Children:
  - {fileID: 1378486522}
  m_Father: {fileID: 722682501}
  m_RootOrder: 0
  m_LocalEulerAnglesHint: {x: 0, y: 0, z: 0}
--- !u!1 &1378486521
GameObject:
  m_ObjectHideFlags: 0
  m_PrefabParentObject: {fileID: 100026, guid: aa67694146c7fe5448971d5d3e3e8dba, type: 2}
  m_PrefabInternal: {fileID: 1915695174}
  serializedVersion: 5
  m_Component:
  - component: {fileID: 1378486522}
  m_Layer: 0
  m_Name: Bip001 L Finger1Nub
  m_TagString: Untagged
  m_Icon: {fileID: 0}
  m_NavMeshLayer: 0
  m_StaticEditorFlags: 0
  m_IsActive: 1
--- !u!4 &1378486522
Transform:
  m_ObjectHideFlags: 0
  m_PrefabParentObject: {fileID: 400008, guid: aa67694146c7fe5448971d5d3e3e8dba, type: 2}
  m_PrefabInternal: {fileID: 1915695174}
  m_GameObject: {fileID: 1378486521}
  m_LocalRotation: {x: 5.551116e-17, y: -0.0000000037252907, z: 0.000000014901163,
    w: 1}
  m_LocalPosition: {x: -0.08200768, y: 0.000000019073486, z: 0.000000028610229}
  m_LocalScale: {x: 0.99999994, y: 0.9999999, z: 1}
  m_Children: []
  m_Father: {fileID: 1337609742}
  m_RootOrder: 0
  m_LocalEulerAnglesHint: {x: 0, y: 0, z: 0}
--- !u!1 &1428733623
GameObject:
  m_ObjectHideFlags: 0
  m_PrefabParentObject: {fileID: 100054, guid: aa67694146c7fe5448971d5d3e3e8dba, type: 2}
  m_PrefabInternal: {fileID: 1915695174}
  serializedVersion: 5
  m_Component:
  - component: {fileID: 1428733624}
  m_Layer: 0
  m_Name: Bip001 Spine1
  m_TagString: Untagged
  m_Icon: {fileID: 0}
  m_NavMeshLayer: 0
  m_StaticEditorFlags: 0
  m_IsActive: 1
--- !u!4 &1428733624
Transform:
  m_ObjectHideFlags: 0
  m_PrefabParentObject: {fileID: 400078, guid: aa67694146c7fe5448971d5d3e3e8dba, type: 2}
  m_PrefabInternal: {fileID: 1915695174}
  m_GameObject: {fileID: 1428733623}
  m_LocalRotation: {x: -0.037552472, y: 0.048111387, z: -0.086476035, w: 0.99438274}
  m_LocalPosition: {x: -0.37173232, y: -0.00029075623, z: 0.000024557114}
  m_LocalScale: {x: 0.9999999, y: 0.9999999, z: 0.99999994}
  m_Children:
  - {fileID: 541866199}
  m_Father: {fileID: 1240409947}
  m_RootOrder: 2
  m_LocalEulerAnglesHint: {x: 0, y: 0, z: 0}
--- !u!1 &1576156958
GameObject:
  m_ObjectHideFlags: 0
  m_PrefabParentObject: {fileID: 100084, guid: aa67694146c7fe5448971d5d3e3e8dba, type: 2}
  m_PrefabInternal: {fileID: 1915695174}
  serializedVersion: 5
  m_Component:
  - component: {fileID: 1576156959}
  m_Layer: 0
  m_Name: Object005
  m_TagString: Untagged
  m_Icon: {fileID: 0}
  m_NavMeshLayer: 0
  m_StaticEditorFlags: 0
  m_IsActive: 1
--- !u!4 &1576156959
Transform:
  m_ObjectHideFlags: 0
  m_PrefabParentObject: {fileID: 400084, guid: aa67694146c7fe5448971d5d3e3e8dba, type: 2}
  m_PrefabInternal: {fileID: 1915695174}
  m_GameObject: {fileID: 1576156958}
  m_LocalRotation: {x: -0.7071068, y: 0, z: -0, w: 0.7071068}
  m_LocalPosition: {x: 0.6469818, y: 0.54750913, z: -0.034734488}
  m_LocalScale: {x: 1, y: 1, z: 1}
  m_Children: []
  m_Father: {fileID: 251245886}
  m_RootOrder: 2
  m_LocalEulerAnglesHint: {x: 0, y: 0, z: 0}
--- !u!1 &1630758821
GameObject:
  m_ObjectHideFlags: 0
  m_PrefabParentObject: {fileID: 100044, guid: aa67694146c7fe5448971d5d3e3e8dba, type: 2}
  m_PrefabInternal: {fileID: 1915695174}
  serializedVersion: 5
  m_Component:
  - component: {fileID: 1630758822}
  m_Layer: 0
  m_Name: Bip001 L Clavicle
  m_TagString: Untagged
  m_Icon: {fileID: 0}
  m_NavMeshLayer: 0
  m_StaticEditorFlags: 0
  m_IsActive: 1
--- !u!4 &1630758822
Transform:
  m_ObjectHideFlags: 0
  m_PrefabParentObject: {fileID: 400076, guid: aa67694146c7fe5448971d5d3e3e8dba, type: 2}
  m_PrefabInternal: {fileID: 1915695174}
  m_GameObject: {fileID: 1630758821}
  m_LocalRotation: {x: 0.73948145, y: 0.050248034, z: -0.6671059, w: 0.07491349}
  m_LocalPosition: {x: 0.026359329, y: -0.07253505, z: 0.11246615}
  m_LocalScale: {x: 0.99999994, y: 0.99999994, z: 0.9999998}
  m_Children:
  - {fileID: 297338799}
  m_Father: {fileID: 541866199}
  m_RootOrder: 1
  m_LocalEulerAnglesHint: {x: 0, y: 0, z: 0}
--- !u!1 &1662662082
GameObject:
  m_ObjectHideFlags: 0
  m_PrefabParentObject: {fileID: 100034, guid: aa67694146c7fe5448971d5d3e3e8dba, type: 2}
  m_PrefabInternal: {fileID: 1915695174}
  serializedVersion: 5
  m_Component:
  - component: {fileID: 1662662083}
  m_Layer: 0
  m_Name: Bip001 L Finger01
  m_TagString: Untagged
  m_Icon: {fileID: 0}
  m_NavMeshLayer: 0
  m_StaticEditorFlags: 0
  m_IsActive: 1
--- !u!4 &1662662083
Transform:
  m_ObjectHideFlags: 0
  m_PrefabParentObject: {fileID: 400034, guid: aa67694146c7fe5448971d5d3e3e8dba, type: 2}
  m_PrefabInternal: {fileID: 1915695174}
  m_GameObject: {fileID: 1662662082}
  m_LocalRotation: {x: 0.0000000037149561, y: -0.000000031611354, z: -0.2394386, w: 0.9709115}
  m_LocalPosition: {x: -0.08127056, y: 0.000000038146972, z: 0.000000038146972}
  m_LocalScale: {x: 1, y: 0.99999994, z: 1}
  m_Children:
  - {fileID: 1859869582}
  m_Father: {fileID: 426670156}
  m_RootOrder: 0
  m_LocalEulerAnglesHint: {x: 0, y: 0, z: 0}
--- !u!1 &1701250959
GameObject:
  m_ObjectHideFlags: 0
  m_PrefabParentObject: {fileID: 100086, guid: aa67694146c7fe5448971d5d3e3e8dba, type: 2}
  m_PrefabInternal: {fileID: 1915695174}
  serializedVersion: 5
  m_Component:
  - component: {fileID: 1701250960}
  m_Layer: 0
  m_Name: M31_bottom
  m_TagString: Untagged
  m_Icon: {fileID: 0}
  m_NavMeshLayer: 0
  m_StaticEditorFlags: 0
  m_IsActive: 1
--- !u!4 &1701250960
Transform:
  m_ObjectHideFlags: 0
  m_PrefabParentObject: {fileID: 400086, guid: aa67694146c7fe5448971d5d3e3e8dba, type: 2}
  m_PrefabInternal: {fileID: 1915695174}
  m_GameObject: {fileID: 1701250959}
  m_LocalRotation: {x: -0.5, y: 0.5, z: 0.5, w: 0.5}
  m_LocalPosition: {x: 0, y: 0, z: 0}
  m_LocalScale: {x: 192.28409, y: 192.28409, z: 192.28409}
  m_Children:
  - {fileID: 406100261}
  m_Father: {fileID: 251245886}
  m_RootOrder: 1
  m_LocalEulerAnglesHint: {x: 0, y: 0, z: 0}
--- !u!1 &1720518970
GameObject:
  m_ObjectHideFlags: 0
  m_PrefabParentObject: {fileID: 100016, guid: aa67694146c7fe5448971d5d3e3e8dba, type: 2}
  m_PrefabInternal: {fileID: 1915695174}
  serializedVersion: 5
  m_Component:
  - component: {fileID: 1720518971}
  m_Layer: 0
  m_Name: Bip001 R Hand
  m_TagString: Untagged
  m_Icon: {fileID: 0}
  m_NavMeshLayer: 0
  m_StaticEditorFlags: 0
  m_IsActive: 1
--- !u!4 &1720518971
Transform:
  m_ObjectHideFlags: 0
  m_PrefabParentObject: {fileID: 400028, guid: aa67694146c7fe5448971d5d3e3e8dba, type: 2}
  m_PrefabInternal: {fileID: 1915695174}
  m_GameObject: {fileID: 1720518970}
  m_LocalRotation: {x: 0.7917589, y: 0.10287187, z: 0.030229565, w: 0.60134965}
  m_LocalPosition: {x: -0.3468159, y: 0.000000014305114, z: 0}
  m_LocalScale: {x: 1, y: 1.0000001, z: 1}
  m_Children:
  - {fileID: 945778492}
  - {fileID: 856763512}
  - {fileID: 1854333028}
  m_Father: {fileID: 1258328927}
  m_RootOrder: 0
  m_LocalEulerAnglesHint: {x: 0, y: 0, z: 0}
--- !u!1 &1854333027
GameObject:
  m_ObjectHideFlags: 0
  m_PrefabParentObject: {fileID: 100002, guid: aa67694146c7fe5448971d5d3e3e8dba, type: 2}
  m_PrefabInternal: {fileID: 1915695174}
  serializedVersion: 5
  m_Component:
  - component: {fileID: 1854333028}
  m_Layer: 0
  m_Name: M31_right
  m_TagString: Untagged
  m_Icon: {fileID: 0}
  m_NavMeshLayer: 0
  m_StaticEditorFlags: 0
  m_IsActive: 1
--- !u!4 &1854333028
Transform:
  m_ObjectHideFlags: 0
  m_PrefabParentObject: {fileID: 400006, guid: aa67694146c7fe5448971d5d3e3e8dba, type: 2}
  m_PrefabInternal: {fileID: 1915695174}
  m_GameObject: {fileID: 1854333027}
  m_LocalRotation: {x: 0.000000009919425, y: 0.00000016863034, z: 0.000000039677722,
    w: 1}
  m_LocalPosition: {x: -0.1736327, y: 0.06489418, z: -0.000000114440915}
  m_LocalScale: {x: 192.28407, y: 192.28406, z: 192.28407}
  m_Children:
  - {fileID: 164386909}
  m_Father: {fileID: 1720518971}
  m_RootOrder: 2
  m_LocalEulerAnglesHint: {x: 0, y: 0, z: 0}
--- !u!1 &1859869581
GameObject:
  m_ObjectHideFlags: 0
  m_PrefabParentObject: {fileID: 100032, guid: aa67694146c7fe5448971d5d3e3e8dba, type: 2}
  m_PrefabInternal: {fileID: 1915695174}
  serializedVersion: 5
  m_Component:
  - component: {fileID: 1859869582}
  m_Layer: 0
  m_Name: Bip001 L Finger0Nub
  m_TagString: Untagged
  m_Icon: {fileID: 0}
  m_NavMeshLayer: 0
  m_StaticEditorFlags: 0
  m_IsActive: 1
--- !u!4 &1859869582
Transform:
  m_ObjectHideFlags: 0
  m_PrefabParentObject: {fileID: 400010, guid: aa67694146c7fe5448971d5d3e3e8dba, type: 2}
  m_PrefabInternal: {fileID: 1915695174}
  m_GameObject: {fileID: 1859869581}
  m_LocalRotation: {x: 1.1102233e-16, y: -0.0000000074505815, z: 0.000000014901163,
    w: 1}
  m_LocalPosition: {x: -0.104309954, y: 0, z: -0.000000038146972}
  m_LocalScale: {x: 0.9999999, y: 0.9999999, z: 0.99999994}
  m_Children: []
  m_Father: {fileID: 1662662083}
  m_RootOrder: 0
  m_LocalEulerAnglesHint: {x: 0, y: 0, z: 0}
--- !u!1 &1886491987
GameObject:
  m_ObjectHideFlags: 0
  m_PrefabParentObject: {fileID: 100040, guid: aa67694146c7fe5448971d5d3e3e8dba, type: 2}
  m_PrefabInternal: {fileID: 1915695174}
  serializedVersion: 5
  m_Component:
  - component: {fileID: 1886491988}
  m_Layer: 0
  m_Name: Bip001 L Forearm
  m_TagString: Untagged
  m_Icon: {fileID: 0}
  m_NavMeshLayer: 0
  m_StaticEditorFlags: 0
  m_IsActive: 1
--- !u!4 &1886491988
Transform:
  m_ObjectHideFlags: 0
  m_PrefabParentObject: {fileID: 400062, guid: aa67694146c7fe5448971d5d3e3e8dba, type: 2}
  m_PrefabInternal: {fileID: 1915695174}
  m_GameObject: {fileID: 1886491987}
  m_LocalRotation: {x: 0.00000001925082, y: -0.000000008572933, z: 0.35829037, w: 0.9336102}
  m_LocalPosition: {x: -0.36953807, y: 0, z: 0}
  m_LocalScale: {x: 1, y: 0.9999999, z: 0.99999994}
  m_Children:
  - {fileID: 411245535}
  m_Father: {fileID: 297338799}
  m_RootOrder: 0
  m_LocalEulerAnglesHint: {x: 0, y: 0, z: 0}
--- !u!1 &1908277626
GameObject:
  m_ObjectHideFlags: 0
  m_PrefabParentObject: {fileID: 0}
  m_PrefabInternal: {fileID: 0}
  serializedVersion: 5
  m_Component:
  - component: {fileID: 1908277631}
  - component: {fileID: 1908277630}
  - component: {fileID: 1908277629}
  - component: {fileID: 1908277628}
  - component: {fileID: 1908277627}
  m_Layer: 0
  m_Name: Main Camera
  m_TagString: MainCamera
  m_Icon: {fileID: 0}
  m_NavMeshLayer: 0
  m_StaticEditorFlags: 0
  m_IsActive: 1
--- !u!81 &1908277627
AudioListener:
  m_ObjectHideFlags: 0
  m_PrefabParentObject: {fileID: 0}
  m_PrefabInternal: {fileID: 0}
  m_GameObject: {fileID: 1908277626}
  m_Enabled: 1
--- !u!124 &1908277628
Behaviour:
  m_ObjectHideFlags: 0
  m_PrefabParentObject: {fileID: 0}
  m_PrefabInternal: {fileID: 0}
  m_GameObject: {fileID: 1908277626}
  m_Enabled: 1
--- !u!92 &1908277629
Behaviour:
  m_ObjectHideFlags: 0
  m_PrefabParentObject: {fileID: 0}
  m_PrefabInternal: {fileID: 0}
  m_GameObject: {fileID: 1908277626}
  m_Enabled: 1
--- !u!20 &1908277630
Camera:
  m_ObjectHideFlags: 0
  m_PrefabParentObject: {fileID: 0}
  m_PrefabInternal: {fileID: 0}
  m_GameObject: {fileID: 1908277626}
  m_Enabled: 1
  serializedVersion: 2
  m_ClearFlags: 1
  m_BackGroundColor: {r: 0, g: 0, b: 0, a: 0.019607844}
  m_NormalizedViewPortRect:
    serializedVersion: 2
    x: 0
    y: 0
    width: 1
    height: 1
  near clip plane: 0.3
  far clip plane: 1000
  field of view: 60
  orthographic: 0
  orthographic size: 5
  m_Depth: -1
  m_CullingMask:
    serializedVersion: 2
    m_Bits: 4294967295
  m_RenderingPath: -1
  m_TargetTexture: {fileID: 0}
  m_TargetDisplay: 0
  m_TargetEye: 3
  m_HDR: 0
  m_AllowMSAA: 1
  m_ForceIntoRT: 0
  m_OcclusionCulling: 1
  m_StereoConvergence: 10
  m_StereoSeparation: 0.022
  m_StereoMirrorMode: 0
--- !u!4 &1908277631
Transform:
  m_ObjectHideFlags: 0
  m_PrefabParentObject: {fileID: 0}
  m_PrefabInternal: {fileID: 0}
  m_GameObject: {fileID: 1908277626}
  m_LocalRotation: {x: 0.0043560537, y: 0.9880901, z: -0.02847463, w: 0.15115626}
  m_LocalPosition: {x: -0.43443513, y: 1.0187247, z: 2.558423}
  m_LocalScale: {x: 1, y: 1, z: 1}
  m_Children: []
  m_Father: {fileID: 0}
  m_RootOrder: 0
  m_LocalEulerAnglesHint: {x: 0, y: 0, z: 0}
--- !u!1001 &1915695174
Prefab:
  m_ObjectHideFlags: 0
  serializedVersion: 2
  m_Modification:
    m_TransformParent: {fileID: 0}
    m_Modifications:
    - target: {fileID: 400090, guid: aa67694146c7fe5448971d5d3e3e8dba, type: 2}
      propertyPath: m_LocalPosition.x
      value: 0
      objectReference: {fileID: 0}
    - target: {fileID: 400090, guid: aa67694146c7fe5448971d5d3e3e8dba, type: 2}
      propertyPath: m_LocalPosition.y
      value: 0
      objectReference: {fileID: 0}
    - target: {fileID: 400090, guid: aa67694146c7fe5448971d5d3e3e8dba, type: 2}
      propertyPath: m_LocalPosition.z
      value: 0
      objectReference: {fileID: 0}
    - target: {fileID: 400090, guid: aa67694146c7fe5448971d5d3e3e8dba, type: 2}
      propertyPath: m_LocalRotation.x
      value: 0
      objectReference: {fileID: 0}
    - target: {fileID: 400090, guid: aa67694146c7fe5448971d5d3e3e8dba, type: 2}
      propertyPath: m_LocalRotation.y
      value: 0
      objectReference: {fileID: 0}
    - target: {fileID: 400090, guid: aa67694146c7fe5448971d5d3e3e8dba, type: 2}
      propertyPath: m_LocalRotation.z
      value: 0
      objectReference: {fileID: 0}
    - target: {fileID: 400090, guid: aa67694146c7fe5448971d5d3e3e8dba, type: 2}
      propertyPath: m_LocalRotation.w
      value: 1
      objectReference: {fileID: 0}
    m_RemovedComponents: []
  m_ParentPrefab: {fileID: 100100000, guid: aa67694146c7fe5448971d5d3e3e8dba, type: 2}
  m_RootGameObject: {fileID: 251245885}
  m_IsPrefabParent: 0
--- !u!1 &1926181190
GameObject:
  m_ObjectHideFlags: 0
  m_PrefabParentObject: {fileID: 100070, guid: aa67694146c7fe5448971d5d3e3e8dba, type: 2}
  m_PrefabInternal: {fileID: 1915695174}
  serializedVersion: 5
  m_Component:
  - component: {fileID: 1926181191}
  m_Layer: 0
  m_Name: Bip001 L Foot
  m_TagString: Untagged
  m_Icon: {fileID: 0}
  m_NavMeshLayer: 0
  m_StaticEditorFlags: 0
  m_IsActive: 1
--- !u!4 &1926181191
Transform:
  m_ObjectHideFlags: 0
  m_PrefabParentObject: {fileID: 400050, guid: aa67694146c7fe5448971d5d3e3e8dba, type: 2}
  m_PrefabInternal: {fileID: 1915695174}
  m_GameObject: {fileID: 1926181190}
  m_LocalRotation: {x: 0.0065913144, y: 0.082946025, z: 0.24952021, w: 0.96478814}
  m_LocalPosition: {x: -0.11761362, y: 0, z: -0.000000038146972}
  m_LocalScale: {x: 1, y: 1.0000002, z: 0.9999999}
  m_Children:
  - {fileID: 7323336}
  m_Father: {fileID: 2127866928}
  m_RootOrder: 0
  m_LocalEulerAnglesHint: {x: 0, y: 0, z: 0}
--- !u!1 &1983958618
GameObject:
  m_ObjectHideFlags: 0
  m_PrefabParentObject: {fileID: 100064, guid: aa67694146c7fe5448971d5d3e3e8dba, type: 2}
  m_PrefabInternal: {fileID: 1915695174}
  serializedVersion: 5
  m_Component:
  - component: {fileID: 1983958619}
  m_Layer: 0
  m_Name: Bip001 R Thigh
  m_TagString: Untagged
  m_Icon: {fileID: 0}
  m_NavMeshLayer: 0
  m_StaticEditorFlags: 0
  m_IsActive: 1
--- !u!4 &1983958619
Transform:
  m_ObjectHideFlags: 0
  m_PrefabParentObject: {fileID: 400058, guid: aa67694146c7fe5448971d5d3e3e8dba, type: 2}
  m_PrefabInternal: {fileID: 1915695174}
  m_GameObject: {fileID: 1983958618}
  m_LocalRotation: {x: -0.2482497, y: 0.9289341, z: -0.19818372, w: -0.190202}
  m_LocalPosition: {x: 0.1207914, y: -0.014437141, z: -0.19728072}
  m_LocalScale: {x: 0.99999994, y: 0.99999994, z: 0.99999994}
  m_Children:
  - {fileID: 44519412}
  m_Father: {fileID: 1240409947}
  m_RootOrder: 1
  m_LocalEulerAnglesHint: {x: 0, y: 0, z: 0}
--- !u!1 &2036270235
GameObject:
  m_ObjectHideFlags: 0
  m_PrefabParentObject: {fileID: 100022, guid: aa67694146c7fe5448971d5d3e3e8dba, type: 2}
  m_PrefabInternal: {fileID: 1915695174}
  serializedVersion: 5
  m_Component:
  - component: {fileID: 2036270236}
  m_Layer: 0
  m_Name: Bip001 R Clavicle
  m_TagString: Untagged
  m_Icon: {fileID: 0}
  m_NavMeshLayer: 0
  m_StaticEditorFlags: 0
  m_IsActive: 1
--- !u!4 &2036270236
Transform:
  m_ObjectHideFlags: 0
  m_PrefabParentObject: {fileID: 400068, guid: aa67694146c7fe5448971d5d3e3e8dba, type: 2}
  m_PrefabInternal: {fileID: 1915695174}
  m_GameObject: {fileID: 2036270235}
  m_LocalRotation: {x: 0.73632705, y: 0.0351324, z: 0.6695398, w: -0.09113041}
  m_LocalPosition: {x: 0.026359253, y: -0.072534405, z: -0.11246657}
  m_LocalScale: {x: 0.99999994, y: 0.99999994, z: 0.9999999}
  m_Children:
  - {fileID: 280155798}
  m_Father: {fileID: 541866199}
  m_RootOrder: 2
  m_LocalEulerAnglesHint: {x: 0, y: 0, z: 0}
--- !u!1 &2117830334
GameObject:
  m_ObjectHideFlags: 0
  m_PrefabParentObject: {fileID: 100012, guid: aa67694146c7fe5448971d5d3e3e8dba, type: 2}
  m_PrefabInternal: {fileID: 1915695174}
  serializedVersion: 5
  m_Component:
  - component: {fileID: 2117830335}
  m_Layer: 0
  m_Name: Bip001 R Finger01
  m_TagString: Untagged
  m_Icon: {fileID: 0}
  m_NavMeshLayer: 0
  m_StaticEditorFlags: 0
  m_IsActive: 1
--- !u!4 &2117830335
Transform:
  m_ObjectHideFlags: 0
  m_PrefabParentObject: {fileID: 400024, guid: aa67694146c7fe5448971d5d3e3e8dba, type: 2}
  m_PrefabInternal: {fileID: 1915695174}
  m_GameObject: {fileID: 2117830334}
  m_LocalRotation: {x: 0.000000017391201, y: -0.000000021629093, z: -0.35798678, w: 0.93372667}
  m_LocalPosition: {x: -0.08127056, y: 0, z: 0}
  m_LocalScale: {x: 0.9999999, y: 0.9999999, z: 1}
  m_Children:
  - {fileID: 1186382157}
  m_Father: {fileID: 945778492}
  m_RootOrder: 0
  m_LocalEulerAnglesHint: {x: 0, y: 0, z: 0}
--- !u!1 &2127866927
GameObject:
  m_ObjectHideFlags: 0
  m_PrefabParentObject: {fileID: 100072, guid: aa67694146c7fe5448971d5d3e3e8dba, type: 2}
  m_PrefabInternal: {fileID: 1915695174}
  serializedVersion: 5
  m_Component:
  - component: {fileID: 2127866928}
  m_Layer: 0
  m_Name: Bip001 L Calf
  m_TagString: Untagged
  m_Icon: {fileID: 0}
  m_NavMeshLayer: 0
  m_StaticEditorFlags: 0
  m_IsActive: 1
--- !u!4 &2127866928
Transform:
  m_ObjectHideFlags: 0
  m_PrefabParentObject: {fileID: 400052, guid: aa67694146c7fe5448971d5d3e3e8dba, type: 2}
  m_PrefabInternal: {fileID: 1915695174}
  m_GameObject: {fileID: 2127866927}
  m_LocalRotation: {x: 0.000000014870763, y: 0.000000022371978, z: 0.00135933, w: 0.9999991}
  m_LocalPosition: {x: -0.17201744, y: -0.000000019073486, z: 0}
  m_LocalScale: {x: 1, y: 1.0000001, z: 0.99999994}
  m_Children:
  - {fileID: 1926181191}
  m_Father: {fileID: 142033751}
  m_RootOrder: 0
  m_LocalEulerAnglesHint: {x: 0, y: 0, z: 0}
--- !u!1 &2145350491
GameObject:
  m_ObjectHideFlags: 0
  m_PrefabParentObject: {fileID: 100060, guid: aa67694146c7fe5448971d5d3e3e8dba, type: 2}
  m_PrefabInternal: {fileID: 1915695174}
  serializedVersion: 5
  m_Component:
  - component: {fileID: 2145350492}
  m_Layer: 0
  m_Name: Bip001 R Foot
  m_TagString: Untagged
  m_Icon: {fileID: 0}
  m_NavMeshLayer: 0
  m_StaticEditorFlags: 0
  m_IsActive: 1
--- !u!4 &2145350492
Transform:
  m_ObjectHideFlags: 0
  m_PrefabParentObject: {fileID: 400046, guid: aa67694146c7fe5448971d5d3e3e8dba, type: 2}
  m_PrefabInternal: {fileID: 1915695174}
  m_GameObject: {fileID: 2145350491}
  m_LocalRotation: {x: 0.06382762, y: -0.25826713, z: -0.3166573, w: 0.91046816}
  m_LocalPosition: {x: -0.11761367, y: 0, z: -0.000000038146972}
  m_LocalScale: {x: 1, y: 1.0000001, z: 1}
  m_Children:
  - {fileID: 864078148}
  m_Father: {fileID: 44519412}
  m_RootOrder: 0
  m_LocalEulerAnglesHint: {x: 0, y: 0, z: 0}
